{
    "content": [
    {
    "title": "Monday.com Stock Jumps 5% Following Q2 Beat",
    "date": "2023-08-14 10:21:00",
    "content": "<p>Shares of <a href='https://financialmodelingprep.com/financial-summary/MNDY'>Monday.com (NASDAQ:MNDY)</a> experienced a pre-market increase of more than 5% today following the company’s reported Q2 results.</p>\n<p>During the quarter, adjusted earnings per share (EPS) were 41 cents, marking a significant improvement compared to the loss of 33 cents per share during the corresponding period in the previous year. This performance exceeded the Street expectation of 17 cents per share.</p>\n<p>The company's revenue reached $175.7 million in the second quarter, reflecting a substantial 42% growth compared to the same period in the previous year. This figure also surpassed the projected revenue of $169.2 million. </p>\n<p>For Q3, management sees revenue of $181-$183 million, compared to the Street estimate of $178.8 million. For the full year, the company expects revenue of $713-$717 million, above the Street estimate of $704.7 million.</p>\n",
    "tickers": "NASDAQ:MNDY",
    "image": "https://cdn.financialmodelingprep.com/images/fmp-1692022890910.jpg",
    "link": "https://financialmodelingprep.com/market-news/fmp-mondaycom-stock-jumps-5-following-q2-beat",
    "author": "Davit Kirakosyan",
    "site": "Financial Modeling Prep"
    },
    {
    "title": "Okta Shares Soar 4% on Goldman Sachs Upgrade",
    "date": "2023-08-14 10:18:00",
    "content": "<p><a href='https://financialmodelingprep.com/financial-summary/OKTA'>Okta (NASDAQ:OKTA)</a> shares surged more than 4% in pre-market today after the company received an upgrade from Goldman Sachs analysts. The upgrade was prompted by the analysts' positive assessment of the risk/reward balance, particularly as they expect subscription revenue to reach its lowest point in the latter half of the year.</p>\n<p>The analysts upgraded the stock's rating from Sell to Buy and assigned a price target of $91. They predict a period of strong performance for Okta. This expectation is grounded in the anticipation of increased growth in cRPO (remaining performance obligation) and ARR (annual recurring revenue), with a projected acceleration from the current 10-15% range to 15%-20%. </p>\n<p>This potential growth is attributed to various factors, including the resolution of challenges in Okta's Customer Identity and Access Management (IAM) business stemming from the integration of its own products with acquired ones, the stabilization of the Workforce segment following strategic changes and macroeconomic challenges, and heightened momentum from cross-selling due to new product cycles, such as Identity Governance and Administration (IGA) and Privileged Access Management (PAM).</p>\n",
    "tickers": "NASDAQ:OKTA",
    "image": "https://cdn.financialmodelingprep.com/images/fmp-1692022682013.jpg",
    "link": "https://financialmodelingprep.com/market-news/fmp-okta-shares-soar-4-on-goldman-sachs-upgrade",
    "author": "Davit Kirakosyan",
    "site": "Financial Modeling Prep"
    },
    {
    "title": "Cano Health Stock Plunges 46% on Going Concern Warning",
    "date": "2023-08-11 12:13:00",
    "content": "<p><a href='https://financialmodelingprep.com/financial-summary/CANO'>Cano Health (NYSE:CANO)</a> witnessed a dramatic decline of over 46% in its stock price pre-market today following the issuance of a warning about its going concern status, coupled with an announcement about its exploration of a potential sale.</p>\n<p>Cano Health disclosed its current inadequacy of liquidity to meet its financial obligations for the next year, encompassing operational, investment, and financing needs.</p>\n<p>In a statement, Cano Health expressed management's assessment that there exists significant uncertainty regarding the company's ability to maintain operations as a going concern within the upcoming year.</p>\n<p>During the second quarter, Cano Health reported total revenue of $766.7 million, which fell short of the projected $829 million. The adjusted earnings before interest, taxes, depreciation, and amortization (EBITDA) exhibited a loss of $149.7 million, a stark contrast to the anticipated profit of $12 million.</p>\n<p>The company's loss per share for the period amounted to $0.51, worse than the predicted loss of $0.40 per share.</p>\n",
    "tickers": "NYSE:CANO",
    "image": "https://cdn.financialmodelingprep.com/images/fmp-1691770428381.jpg",
    "link": "https://financialmodelingprep.com/market-news/fmp-cano-health-stock-plunges-46-on-going-concern-warning",
    "author": "Davit Kirakosyan",
    "site": "Financial Modeling Prep"
    },
    {
    "title": "News Corp Posts Q4 EPS Beat, But Worse Than Expected Revenues",
    "date": "2023-08-11 11:49:00",
    "content": "<p><a href='https://financialmodelingprep.com/financial-summary/NWS'>News Corp (NASDAQ:NWS)</a> announced its Q4 financial results, posting earnings per share (EPS) of $0.14, surpassing the projected consensus of $0.09. However, the company experienced a 9% decline in revenue compared to the previous year, reaching $2.43 billion, which fell short of the Street estimate of $2.48 billion.</p>\n<p>The decrease in revenues was primarily attributed to reduced book sales impacting the Book Publishing segment and challenging conditions in the housing markets affecting the Digital Real Estate Services segment in both the United States and Australia. On a positive note, the Subscription Video Services segment observed higher revenues, mitigating the overall decline.</p>\n<p>Robert Thomson, the Chief Executive highlighted the resilience of the company's revenue streams and the effectiveness of strict cost management in navigating a complex landscape of macroeconomic factors, supply chain challenges, and currency fluctuations. The company achieved total revenues of $9.9 billion and profits exceeding $1.4 billion for the full 2023 year, marking the second-highest level of profitability ever recorded by News Corp.</p>\n",
    "tickers": "NASDAQ:NWS",
    "image": "https://cdn.financialmodelingprep.com/images/fmp-1691768963934.jpg",
    "link": "https://financialmodelingprep.com/market-news/fmp-news-corp-posts-q4-eps-beat-but-worse-than-expected-revenues",
    "author": "Davit Kirakosyan",
    "site": "Financial Modeling Prep"
    },
    {
    "title": "Arlo Technologies Gains on Q2 Beat",
    "date": "2023-08-11 11:40:00",
    "content": "<p><a href='https://financialmodelingprep.com/financial-summary/ARLO'>Arlo Technologies (NYSE:ARLO)</a> shares rose more than 3% intra-day today following the company's announcement of Q2 results that exceeded expectations.</p>\n<p>Earnings per share (EPS) was $0.06, surpassing the Street estimate of $0.04. The revenue experienced a 3.3% decrease year-over-year, amounting to $115.1 million, compared to the Street estimate of $110.18 million.</p>\n<p>The quarter concluded with an Annual Recurring Revenue (ARR) of $193.6 million, showcasing a remarkable growth rate of 66.1% compared to the previous year. Throughout the quarter, the company added 245,000 paid accounts, bringing the cumulative number of paid accounts to approximately 2.3 million, up 54.9% year-over-year.</p>\n",
    "tickers": "NYSE:ARLO",
    "image": "https://cdn.financialmodelingprep.com/images/fmp-1691768425993.jpg",
    "link": "https://financialmodelingprep.com/market-news/fmp-arlo-technologies-gains-on-q2-beat",
    "author": "Davit Kirakosyan",
    "site": "Financial Modeling Prep"
    }
    ],
    "pageable": {
    "sort": {
    "sorted": true,
    "unsorted": false,
    "empty": false
    },
    "pageSize": 5,
    "pageNumber": 0,
    "offset": 0,
    "paged": true,
    "unpaged": false
    },
    "totalPages": 563,
    "totalElements": 2811,
    "last": false,
    "number": 0,
    "size": 5,
    "numberOfElements": 5,
    "sort": {
    "sorted": true,
    "unsorted": false,
    "empty": false
    },
    "first": true,
    "empty": false
    }